{"name":"534566c4547728c84244a2e566c22328","url":"\/articles\/534566c4547728c84244a2e566c22328","primaryType":{"name":"referaty_doc"},"mixinTypes":[],"properties":{"starttime":{"name":"starttime","value":[{"type":null,"binary":null,"bool":false,"date":null,"decimal":null,"doublee":0,"longg":1086117698000,"string":null}]},"original_category":{"name":"original_category","value":[{"type":null,"binary":null,"bool":false,"date":null,"decimal":null,"doublee":0,"longg":0,"string":"prirodne-vedy"}]},"keywords":{"name":"keywords","value":[{"type":null,"binary":null,"bool":false,"date":null,"decimal":null,"doublee":0,"longg":0,"string":"nervova sustava biologia funkcia reflexny obluk nepodmieneny podmieneny reflex"}]},"state":{"name":"state","value":[{"type":null,"binary":null,"bool":false,"date":null,"decimal":null,"doublee":0,"longg":0,"string":"published"}]},"space":{"name":"space","value":[{"type":null,"binary":null,"bool":false,"date":null,"decimal":null,"doublee":0,"longg":0,"string":"article_referaty"}]},"displaytime":{"name":"displaytime","value":[{"type":null,"binary":null,"bool":false,"date":null,"decimal":null,"doublee":0,"longg":1086117698000,"string":null}]},"category":{"name":"category","value":[{"type":null,"binary":null,"bool":false,"date":null,"decimal":null,"doublee":0,"longg":0,"string":"biologia-a-geologia"}]},"article_id":{"name":"article_id","value":[{"type":null,"binary":null,"bool":false,"date":null,"decimal":null,"doublee":0,"longg":0,"string":"legacy_15051"}]},"title":{"name":"title","value":[{"type":null,"binary":null,"bool":false,"date":null,"decimal":null,"doublee":0,"longg":0,"string":"Nervov\u00e1 s\u00fastava"}]},"legacy_id":{"name":"legacy_id","value":[{"type":null,"binary":null,"bool":false,"date":null,"decimal":null,"doublee":0,"longg":15051,"string":null}]},"id_article_space":{"name":"id_article_space","value":[{"type":null,"binary":null,"bool":false,"date":null,"decimal":null,"doublee":0,"longg":0,"string":null}]},"original_subcategory":{"name":"original_subcategory","value":[{"type":null,"binary":null,"bool":false,"date":null,"decimal":null,"doublee":0,"longg":0,"string":"biologia-a-geologia"}]},"content2":{"name":"content2","value":[{"type":null,"binary":null,"bool":false,"date":null,"decimal":null,"doublee":0,"longg":0,"string":"1. Prij\u00edmanie inform\u00e1ci\u00ed o zmen\u00e1ch vn\u00fatorn\u00e9ho a vonkaj\u0161ieho prostredia
2. Triedenie a spracovanie inform\u00e1ci\u00ed
3. Tvorba v\u00fdstupn\u00fdch sign\u00e1lov, ktor\u00e9 priv\u00e1dza k v\u00fdkonn\u00fdm org\u00e1nom

Nervov\u00e9 riadenie \u010dinnosti organizmu je dokonalej\u0161\u00ed syst\u00e9m riadenia ako riadenie hormon\u00e1lne.
Z\u00e1kladnou stavebnou a funk\u010dnou jednotkou nervovej s\u00fastavy je nervov\u00e1 bunka \u2013 neur\u00f3n.
Stavba a funkcia neur\u00f3nu
Stavba: telo s jadrom, dendrity (kr\u00e1tke v\u00fdbe\u017eky), neurit (dlh\u00fd v\u00fdbe\u017eok obalen\u00fd myel\u00ednovou po\u0161vou, ktor\u00e1 tvor\u00ed tukov\u00fa izol\u00e1ciu)
Miesta spojenia neur\u00f3nov pomocou v\u00fdbe\u017ekov sa naz\u00fdva synapsia (z\u00e1poj). S\u00fa\u010das\u0165ou nervovej s\u00fatavy s\u00fa i rozkon\u00e1ren\u00e9 bunky s podpornou funkciou (neurogli\u00e1).
Funkcia: tvorba, vedenie a \u0161\u00edrenie vzruchov

Vznik a prenos nervov\u00e9ho vzruchu: Nervov\u00e9 bunka prij\u00edma podr\u00e1\u017edenie od zmyslovej alebo inej nervovej bunky a odovzd\u00e1va ho \u010fal\u0161ej nervovej, svalovej alebo \u017e\u013eazovej bunke. Odpove\u010f organizmu na zmenu prostredia sa vol\u00e1 reflex, tvor\u00ed sa takto:
1. podr\u00e1\u017edenie zmyslov\u00fdch buniek \u2013 receptora
2. prenos vzruchu dostrediv\u00fdmi nervov\u00fdmi vl\u00e1knami do centr\u00e1lnej nervovej s\u00fastavy (mozog, miecha)
3. vznik odpovede v centr\u00e1lnej nervovej s\u00fastave
4. prenos odpovede odstrediv\u00fdmi nervov\u00fdmi vl\u00e1knami na v\u00fdkonn\u00fd org\u00e1n \u2013 efektor (napr. sval, \u017e\u013eaza)
5. \u010dinnos\u0165 v\u00fdkonn\u00e9ho org\u00e1nu
- t\u00e1to dr\u00e1ha sa naz\u00fdva reflexn\u00fd obl\u00fak.

Nepodmienen\u00fd a podmienen\u00fd reflex
Nepodmienen\u00fd reflex
- je vroden\u00fd, trval\u00fd, druhovo \u0161pecifick\u00fd. Napr\u00edklad u ml\u00e1\u010fat cicavcov cicanie matersk\u00e9ho mlieka.

Podmienen\u00fd reflex
Zaoberal sa n\u00edm rusk\u00fd fyziol\u00f3g I. P. Pavlov. Podmienen\u00fd reflex sa vytv\u00e1ra po\u010das \u017eivota. Vznik\u00e1 p\u00f4soben\u00edm 2 podnetov, z ktor\u00fdch jeden je nev\u00fdznamn\u00fd pre organizmus (zvon\u010dek) a druh\u00fd m\u00e1 biologick\u00fd v\u00fdznam (slintanie) a vyvol\u00e1va odpove\u010f. Doch\u00e1dza k do\u010dasn\u00e9mu spojeniu, odpove\u010f sa dostav\u00ed po nev\u00fdznamnom podnete, z ktor\u00e9ho sa st\u00e1va sign\u00e1lny podnet. Ak podnety prestan\u00fa by\u0165 sp\u00e1jan\u00e9, reflex vyhas\u00edna.
Pavlov vedel, \u017ee ke\u010f pes zac\u00edti jedlo, za\u010dne slinta\u0165 (nepodmienen\u00fd reflex). Ke\u010f pred ka\u017ed\u00fdm k\u0155men\u00edm psa zazvonil, onedlo si pes zvonenie spojil s jedlom a sliny sa mu za\u010dali vylu\u010dova\u0165 u\u017e pri samotnom zvuku. Vznikol podmienen\u00fd reflex.
Podmienen\u00e9 reflexy s\u00fa aj u\u010denie a pam\u00e4\u0165. Zab\u00fadanie ja vyhas\u00ednanie reflexov.
Biologicky v\u00fdznamn\u00e9 podnety tvoria 1. sign\u00e1lov\u00fa s\u00fastavu.
U \u010dloveka m\u00f4\u017eu by\u0165 podnetom i my\u0161lienky, ktor\u00e9 s\u00fa z\u00e1kladom myslenia, re\u010di a pr\u00e1ce - 2. sign\u00e1lov\u00e1 s\u00fastava.
Nervov\u00e1 s\u00fastava \u010dloveka sa del\u00ed na centr\u00e1lnu (\u00fastredn\u00fa) a obvodov\u00fa nervov\u00fa s\u00fastavu.

Stavba a funkcia centr\u00e1lnej nervovej s\u00fastavy (CNS)
Centr\u00e1lnu nervov\u00fa s\u00fastavu tvor\u00ed mozog a miecha.
Mozgovomiechov\u00fd mok \u2013 je vn\u00fatorn\u00fdm prostred\u00edm CNS, vzn\u00e1\u0161a sa v \u0148om mozog a miecha. Chr\u00e1ni ich pred otrasmi a n\u00e1razmi.
STAVBA A FUNKCIE MIECHY
Stavba: pozost\u00e1va z 2 typov tkan\u00edv. Jadro je zo sivej hmoty, ktor\u00fa obklopuje biela hmota \u2013 vedie vzruchy do mozgu a sp\u00e4\u0165.

Funkcia:
1. S\u00eddlo miechov\u00fdch reflexov - Napr. kolenn\u00fd, patel\u00e1rny reflex \u2013 Po \u00fadere na kolenn\u00fa \u0161\u013eachu dostrediv\u00e9 nervov\u00e9 vl\u00e1kna priv\u00e1dzaj\u00fa vzruchy z receptorov v kolennej \u0161\u013eache 4-hlav\u00e9ho svalu stehna zadn\u00fdmi kore\u0148mi do miechy. V mieche vznik\u00e1 odpove\u010f, ktor\u00fa ved\u00fa odstrediv\u00e9 nervov\u00e9 vl\u00e1kna k v\u00fdkonn\u00e9mu org\u00e1nu \u2013 svalu, ktor\u00fd sa stiahne, \u010do sa prejav\u00ed \u013eahk\u00fdm vykopnut\u00edm predkolenia.
2. Prevodov\u00e1 funkcia \u2013 spr\u00e1vy z receptorov sa m\u00f4\u017eu cez miechu vies\u0165 aj k vy\u0161\u0161\u00edm oddielom nervovej s\u00fastavy. Mozog teda riadi prostredn\u00edctvom miechy \u010dinnos\u0165 kostrov\u00fdch svalov a vn\u00fatorn\u00fdch org\u00e1nov.
3. Mo\u010denie a stolica

STAVBA A FUNKCIA MOZGU
1. Zadn\u00fd mozog \u2013 tvor\u00ed ho pred\u013a\u017een\u00e1 miecha, most a mozo\u010dek
A\/ Pred\u013a\u017een\u00e1 miecha \u2013 z nej a z mosta vystupuje a vstupuje polovica hlavov\u00fdch nervov. Obsahuje centr\u00e1 na riadenie \u017eivotn\u00fdch funkci\u00ed \u2013 obeh krvi, d\u00fdchanie, tr\u00e1venie. Riadi aj obrann\u00e9 reflexy \u2013 ka\u0161e\u013e, k\u00fdchanie, zvracanie, rohovkov\u00fd reflex.
B\/ Mozo\u010dek \u2013 nach\u00e1dza sa nad pred\u013a\u017eenou miechou a mostom. Tvoria ho 2 pologule spojen\u00e9 mozo\u010dkov\u00fdm \u010dervom. Usporiadanie sivej a bielej hmoty vytv\u00e1ra na reze strom \u017eivota. Riadi koordin\u00e1ciu pohybov\u00fdch funkci\u00ed, svalov\u00e9 nap\u00e4tie, vzpriamen\u00fa polohu tela a udr\u017eiavanie rovnov\u00e1hy.
2. Stredn\u00fd mozog \u2013 je to najmen\u0161\u00ed oddiel mozgu. Jeho nervy riadia okohybn\u00e9 svaly, nepodmienen\u00e9 zrakov\u00e9 a sluchov\u00e9 reflexy (pohyb v smere podnetu), zrenicov\u00fd reflex a akomod\u00e1ciu \u0161o\u0161ovky.
Od pred\u013a\u017eenej miechy cez most, stredn\u00fd mozog a\u017e do medzimozgu prech\u00e1dza sie\u0165 neur\u00f3nov \u2013 retikul\u00e1rna form\u00e1cia, ktor\u00e1 je d\u00f4le\u017eit\u00e1 pri preb\u00fadzan\u00ed sa zo sp\u00e1nku, pri udr\u017ean\u00ed stavu bdelosti a pozornosti.
3. Medzimozog \u2013 m\u00e1 dve \u010dasti l\u00f4\u017eko (talamus) a podl\u00f4\u017eko (hypotalamus)
A\/ L\u00f4\u017eko (talamus) \u2013 prep\u00e1jaj\u00fa sa v \u0148om dr\u00e1hy ved\u00face do mozgovej k\u00f4ry. Vnemy v \u0148om z\u00edskavaj\u00fa citov\u00e9 zafarbenie. Sprostredk\u00fava aj reakcie na dotyk, teplo, chlad a boles\u0165.
B\/ Podl\u00f4\u017eko (hypotalamus) \u2013 pod n\u00edm sa nach\u00e1dza hypof\u00fdza \u2013 podmozgov\u00e1 \u017e\u013eaza (\u017e\u013eaza s vn\u00fatorn\u00fdm vylu\u010dovan\u00edm), ktor\u00e1 je sn\u00edm spojen\u00e1.
Tvor\u00ed regula\u010dn\u00e9 horm\u00f3ny, ktor\u00e9 sa krvou dost\u00e1vaj\u00fa do predn\u00e9ho laloku hypof\u00fdzy a tam ovplyv\u0148uj\u00fa tvorbu jej horm\u00f3nov a horm\u00f3ny, ktor\u00e9 sa ukladaj\u00fa v zadnom laloku hypof\u00fdzy.
Riadi aj \u010dinnos\u0165 vn\u00fatorn\u00fdch org\u00e1nov, udr\u017eiavanie st\u00e1lej teploty tela, hospod\u00e1renie s vodou a so\u013eami, d\u00fdchanie, obeh krvi, pr\u00edjem potravy a sexu\u00e1lne funkcie.
4. Predn\u00fd mozog \u2013 tvoria ho 2 mozgov\u00e9 pologule \u2013 hemisf\u00e9ry. V spodnej \u010dasti s\u00fa zhluky sivej hmoty \u2013 baz\u00e1lne gangli\u00e1 na riadenie pohybov. Vn\u00fatro tvor\u00ed biela hmota. Na povrchu je mozgov\u00e1 k\u00f4ra, br\u00e1zdami \u010dlenen\u00e1 na z\u00e1vity, sklad\u00e1 sa z lalokov \u2013 \u010delov\u00e9 (riadia re\u010d, rozhodovanie a pocity), sp\u00e1nkov\u00e9 (sluch, vyjadrovanie a pam\u00e4\u0165), temenn\u00fd (bdelos\u0165 a zmyslov\u00e9 vn\u00edmanie) a z\u00e1hlavn\u00fd (zrak). Mozgov\u00e1 k\u00f4ra sprac\u00fava a analyzuje inform\u00e1cie z receptorov, vznik\u00e1 v nej uvedomenie a hodnotenie prostredia a formovanie vedomej \u010dinnosti.
Podk\u00f4rov\u00e9 oddiely riadia jemn\u00fa \u00fapravu pohybov.
U \u013eud\u00ed p\u00ed\u0161ucich pravou rukou je dominantn\u00e1 \u013eav\u00e1 pologu\u013ea (hemisf\u00e9ra) a u \u013eav\u00e1kov prav\u00e1. Obvodov\u00e1 nervov\u00e1 s\u00fastava a jej funkcie

Obvodov\u00fa nervov\u00fa s\u00fastavu tvoria :
1. Miechov\u00e9 nervy \u2013 vystupuj\u00fa z chrbticovej miechy. Je ich 31 p\u00e1rov. Riadia oblasti od krku nadol. S\u00fa zmie\u0161an\u00e9:
A\/ dostrediv\u00e9 nervov\u00e9 vl\u00e1kna \u2013 vych\u00e1dzaj\u00fa z receptorov a id\u00fa do miechy zadn\u00fdmi kore\u0148mi
B\/ odstrediv\u00e9 nervov\u00e9 vl\u00e1kna \u2013 vystupuj\u00fa z miechy predn\u00fdmi kore\u0148mi, inervuj\u00fa kostrov\u00e9 svaly
2. Mozgov\u00e9 nervy \u2013 z mozgu vystupuje a vstupuje 12 hlavov\u00fdch nervov. Riadia oblas\u0165 hlavy.
Napr\u00edklad: okohybn\u00fd, zrakov\u00fd, \u010duchov\u00fd, polohovosluchov\u00fd, tv\u00e1rov\u00fd, trojklann\u00fd nerv ...
3. Auton\u00f3mne nervy \u2013 ich vl\u00e1kna vych\u00e1dzaj\u00fa v mozgu a miechy. Riadia vn\u00fatorn\u00e9 org\u00e1ny a hormon\u00e1lne riadenie. Riadenie auton\u00f3mnych funkci\u00ed m\u00e1 reflexn\u00fd charakter \u2013 nez\u00e1vis\u00ed od na\u0161ej v\u00f4le, neuvedomujeme si ho."}]},"user_id":{"name":"user_id","value":[{"type":null,"binary":null,"bool":false,"date":null,"decimal":null,"doublee":0,"longg":5715,"string":null}]},"user_id_islegacy":{"name":"user_id_islegacy","value":[{"type":null,"binary":null,"bool":true,"date":null,"decimal":null,"doublee":0,"longg":0,"string":null}]},"language":{"name":"language","value":[{"type":null,"binary":null,"bool":false,"date":null,"decimal":null,"doublee":0,"longg":0,"string":"slovencina"}]},"created_time":{"name":"created_time","value":[{"type":null,"binary":null,"bool":false,"date":null,"decimal":null,"doublee":0,"longg":1086117698000,"string":null}]},"note":{"name":"note","value":[{"type":null,"binary":null,"bool":false,"date":null,"decimal":null,"doublee":0,"longg":0,"string":null}]}},"children":{"schools":{"name":"schools","url":"\/articles\/534566c4547728c84244a2e566c22328\/schools","primaryType":null,"mixinTypes":[],"properties":{"stredna-odborna-skola":{"name":"stredna-odborna-skola","value":[{"type":null,"binary":null,"bool":false,"date":null,"decimal":null,"doublee":0,"longg":0,"string":"stredna-odborna-skola"}]}},"children":[]},"images":{"name":"images","url":"\/articles\/534566c4547728c84244a2e566c22328\/images","primaryType":null,"mixinTypes":[],"properties":[],"children":[]},"links":{"name":"links","url":"\/articles\/534566c4547728c84244a2e566c22328\/links","primaryType":null,"mixinTypes":[],"properties":[],"children":[]},"sources":{"name":"sources","url":"\/articles\/534566c4547728c84244a2e566c22328\/sources","primaryType":null,"mixinTypes":[],"properties":[],"children":[]}}}
